{
  "users": [
    {
      "email": "olivier@mail.com",
      "password": "$2a$10$Kh.5dDGeC8J7q7qbsYi2xO1aXhMtgxSl2vjGMx.eBMGCWocvoUxFa",
      "id": 1
    },
    {
      "email": "olivier@mail1.com",
      "password": "$2a$10$SV24fkmZde6jkNTa/NUxteKIsoNhD7VWoAFQiWy5H/njjiXEAMP..",
      "firstname": "Olivier",
      "lastname": "Monge",
      "age": 32,
      "id": 2
    }
  ]
}